{
  "count": 200,
  "next": "https://cryptopanic.com/api/v1/posts/?auth_token=34f5736b96c4c6aa74522bce23db1801ce9efa1f&public=true&page=2",
  "previous": null,
  "results": [
    {
      "kind": "news",
      "domain": "newsbtc.com",
      "source": {
        "title": "NewsBTC",
        "region": "en",
        "domain": "newsbtc.com",
        "path": null
      },
      "title": "By The Numbers: What $10 In Bitcoin Each Day Would Net Investors",
      "published_at": "2021-08-14T17:00:23Z",
      "slug": "By-The-Numbers-What-10-In-Bitcoin-Each-Day-Would-Net-Investors",
      "currencies": [
        {
          "code": "BTC",
          "title": "Bitcoin",
          "slug": "bitcoin",
          "url": "https://cryptopanic.com/news/bitcoin/"
        }
      ],
      "id": 12538298,
      "url": "https://cryptopanic.com/news/12538298/By-The-Numbers-What-10-In-Bitcoin-Each-Day-Would-Net-Investors",
      "created_at": "2021-08-14T17:00:23Z",
      "votes": {
        "negative": 0,
        "positive": 0,
        "important": 0,
        "liked": 0,
        "disliked": 0,
        "lol": 0,
        "toxic": 0,
        "saved": 0,
        "comments": 0
      }
    },
    {
      "kind": "news",
      "domain": "bitcoinist.com",
      "source": {
        "title": "Bitcoinist",
        "region": "en",
        "domain": "bitcoinist.com",
        "path": null
      },
      "title": "By The Numbers: How EIP-1559 Has Impacted Ethereum Thus Far",
      "published_at": "2021-08-14T17:00:17Z",
      "slug": "By-The-Numbers-How-EIP-1559-Has-Impacted-Ethereum-Thus-Far",
      "currencies": [
        {
          "code": "ETH",
          "title": "Ethereum",
          "slug": "ethereum",
          "url": "https://cryptopanic.com/news/ethereum/"
        }
      ],
      "id": 12538308,
      "url": "https://cryptopanic.com/news/12538308/By-The-Numbers-How-EIP-1559-Has-Impacted-Ethereum-Thus-Far",
      "created_at": "2021-08-14T17:00:17Z",
      "votes": {
        "negative": 0,
        "positive": 0,
        "important": 0,
        "liked": 0,
        "disliked": 0,
        "lol": 0,
        "toxic": 0,
        "saved": 0,
        "comments": 0
      }
    },
    {
      "kind": "news",
      "domain": "bitcoinist.com",
      "votes": {
        "negative": 1,
        "positive": 0,
        "important": 0,
        "liked": 0,
        "disliked": 1,
        "lol": 0,
        "toxic": 0,
        "saved": 0,
        "comments": 0
      },
      "source": {
        "title": "Bitcoinist",
        "region": "en",
        "domain": "bitcoinist.com",
        "path": null
      },
      "title": "CFTC Commissioner Stresses: Ethereum Is Under Our Jurisdiction",
      "published_at": "2021-08-14T16:29:57Z",
      "slug": "CFTC-Commissioner-Stresses-Ethereum-Is-Under-Our-Jurisdiction",
      "currencies": [
        {
          "code": "ETH",
          "title": "Ethereum",
          "slug": "ethereum",
          "url": "https://cryptopanic.com/news/ethereum/"
        }
      ],
      "id": 12538241,
      "url": "https://cryptopanic.com/news/12538241/CFTC-Commissioner-Stresses-Ethereum-Is-Under-Our-Jurisdiction",
      "created_at": "2021-08-14T16:29:57Z"
    },
    {
      "kind": "news",
      "domain": "beincrypto.com",
      "votes": {
        "negative": 0,
        "positive": 3,
        "important": 3,
        "liked": 3,
        "disliked": 0,
        "lol": 0,
        "toxic": 0,
        "saved": 0,
        "comments": 0
      },
      "source": {
        "title": "BeInCrypto",
        "region": "en",
        "domain": "beincrypto.com",
        "path": null
      },
      "title": "Polygon Begins Foray Into ZK With $250M Hermez Network Merger",
      "published_at": "2021-08-14T16:10:00Z",
      "slug": "Polygon-Begins-Foray-Into-ZK-With-250M-Hermez-Network-Merger",
      "currencies": [
        {
          "code": "MATIC",
          "title": "Polygon",
          "slug": "matic-network",
          "url": "https://cryptopanic.com/news/matic-network/"
        }
      ],
      "id": 12538204,
      "url": "https://cryptopanic.com/news/12538204/Polygon-Begins-Foray-Into-ZK-With-250M-Hermez-Network-Merger",
      "created_at": "2021-08-14T16:10:00Z"
    },
    {
      "kind": "news",
      "domain": "zycrypto.com",
      "votes": {
        "negative": 1,
        "positive": 13,
        "important": 9,
        "liked": 9,
        "disliked": 1,
        "lol": 0,
        "toxic": 0,
        "saved": 1,
        "comments": 8
      },
      "source": {
        "title": "ZyCrypto",
        "region": "en",
        "domain": "zycrypto.com",
        "path": null
      },
      "title": "As ADA Spirals Into Massive Advancement, Cardano Launches Next Phase Of Project Fund to Strengthen Its Ecosystem",
      "published_at": "2021-08-14T16:01:14Z",
      "slug": "As-ADA-Spirals-Into-Massive-Advancement-Cardano-Launches-Next-Phase-Of-Project-Fund-to-Strengthen-Its-Ecosystem",
      "currencies": [
        {
          "code": "ADA",
          "title": "Cardano",
          "slug": "cardano",
          "url": "https://cryptopanic.com/news/cardano/"
        }
      ],
      "id": 12538202,
      "url": "https://cryptopanic.com/news/12538202/As-ADA-Spirals-Into-Massive-Advancement-Cardano-Launches-Next-Phase-Of-Project-Fund-to-Strengthen-Its-Ecosystem",
      "created_at": "2021-08-14T16:01:14Z"
    },
    {
      "kind": "news",
      "domain": "cryptopotato.com",
      "votes": {
        "negative": 0,
        "positive": 2,
        "important": 1,
        "liked": 2,
        "disliked": 0,
        "lol": 0,
        "toxic": 0,
        "saved": 0,
        "comments": 1
      },
      "source": {
        "title": "Feed - Cryptopotato.Com",
        "region": "en",
        "domain": "cryptopotato.com",
        "path": null
      },
      "title": "Following Spider-Man: Marvel Launches NFT Collection for Captain America and Sam Wilson",
      "published_at": "2021-08-14T15:43:55Z",
      "slug": "Following-Spider-Man-Marvel-Launches-NFT-Collection-for-Captain-America-and-Sam-Wilson",
      "id": 12538169,
      "url": "https://cryptopanic.com/news/12538169/Following-Spider-Man-Marvel-Launches-NFT-Collection-for-Captain-America-and-Sam-Wilson",
      "created_at": "2021-08-14T15:43:55Z"
    },
    {
      "kind": "news",
      "domain": "trustnodes.com",
      "votes": {
        "negative": 0,
        "positive": 0,
        "important": 0,
        "liked": 1,
        "disliked": 0,
        "lol": 0,
        "toxic": 0,
        "saved": 1,
        "comments": 0
      },
      "source": {
        "title": "Trustnodes",
        "region": "en",
        "domain": "trustnodes.com",
        "path": null
      },
      "title": "Bitcoin is a War Deterrent and in the Interest of US National Security Says Space Force Engineer",
      "published_at": "2021-08-14T15:14:36Z",
      "slug": "Bitcoin-is-a-War-Deterrent-and-in-the-Interest-of-US-National-Security-Says-Space-Force-Engineer",
      "currencies": [
        {
          "code": "BTC",
          "title": "Bitcoin",
          "slug": "bitcoin",
          "url": "https://cryptopanic.com/news/bitcoin/"
        }
      ],
      "id": 12538135,
      "url": "https://cryptopanic.com/news/12538135/Bitcoin-is-a-War-Deterrent-and-in-the-Interest-of-US-National-Security-Says-Space-Force-Engineer",
      "created_at": "2021-08-14T15:14:36Z"
    },
    {
      "kind": "news",
      "domain": "decrypt.co",
      "votes": {
        "negative": 1,
        "positive": 0,
        "important": 0,
        "liked": 0,
        "disliked": 0,
        "lol": 0,
        "toxic": 0,
        "saved": 0,
        "comments": 0
      },
      "source": {
        "title": "Decrypt",
        "region": "en",
        "domain": "decrypt.co",
        "path": null
      },
      "title": "'Too Weird Even for Crypto'—Lessons of the Poly Network Hack",
      "published_at": "2021-08-14T15:04:41Z",
      "slug": "Too-Weird-Even-for-CryptoLessons-of-the-Poly-Network-Hack",
      "id": 12538108,
      "url": "https://cryptopanic.com/news/12538108/Too-Weird-Even-for-CryptoLessons-of-the-Poly-Network-Hack",
      "created_at": "2021-08-14T15:04:41Z"
    },
    {
      "kind": "news",
      "domain": "bitcoinist.com",
      "votes": {
        "negative": 0,
        "positive": 0,
        "important": 0,
        "liked": 1,
        "disliked": 0,
        "lol": 0,
        "toxic": 0,
        "saved": 0,
        "comments": 0
      },
      "source": {
        "title": "Bitcoinist",
        "region": "en",
        "domain": "bitcoinist.com",
        "path": null
      },
      "title": "Kaszek, Leading Latin American Venture Firm, Makes First DeFi Investment",
      "published_at": "2021-08-14T15:00:13Z",
      "slug": "Kaszek-Leading-Latin-American-Venture-Firm-Makes-First-DeFi-Investment",
      "id": 12538105,
      "url": "https://cryptopanic.com/news/12538105/Kaszek-Leading-Latin-American-Venture-Firm-Makes-First-DeFi-Investment",
      "created_at": "2021-08-14T15:00:13Z"
    },
    {
      "kind": "news",
      "domain": "beincrypto.com",
      "votes": {
        "negative": 0,
        "positive": 0,
        "important": 0,
        "liked": 0,
        "disliked": 0,
        "lol": 0,
        "toxic": 0,
        "saved": 0,
        "comments": 1
      },
      "source": {
        "title": "BeInCrypto",
        "region": "en",
        "domain": "beincrypto.com",
        "path": null
      },
      "title": "Blockchain-Based Social Media Aims to Make Online Socializing Truly Free",
      "published_at": "2021-08-14T15:00:00Z",
      "slug": "Blockchain-Based-Social-Media-Aims-to-Make-Online-Socializing-Truly-Free",
      "id": 12538102,
      "url": "https://cryptopanic.com/news/12538102/Blockchain-Based-Social-Media-Aims-to-Make-Online-Socializing-Truly-Free",
      "created_at": "2021-08-14T15:00:00Z"
    },
    {
      "kind": "news",
      "domain": "cointelegraph.com",
      "votes": {
        "negative": 1,
        "positive": 3,
        "important": 2,
        "liked": 4,
        "disliked": 1,
        "lol": 0,
        "toxic": 0,
        "saved": 0,
        "comments": 3
      },
      "source": {
        "title": "CoinTelegraph",
        "region": "en",
        "domain": "cointelegraph.com",
        "path": null
      },
      "title": "Bitcoin holds $46K support after failed breakout, Cardano price passes $2.20",
      "published_at": "2021-08-14T15:00:00Z",
      "slug": "Bitcoin-holds-46K-support-after-failed-breakout-Cardano-price-passes-220",
      "currencies": [
        {
          "code": "BTC",
          "title": "Bitcoin",
          "slug": "bitcoin",
          "url": "https://cryptopanic.com/news/bitcoin/"
        },
        {
          "code": "ADA",
          "title": "Cardano",
          "slug": "cardano",
          "url": "https://cryptopanic.com/news/cardano/"
        }
      ],
      "id": 12538070,
      "url": "https://cryptopanic.com/news/12538070/Bitcoin-holds-46K-support-after-failed-breakout-Cardano-price-passes-220",
      "created_at": "2021-08-14T15:00:00Z"
    },
    {
      "kind": "news",
      "domain": "beincrypto.com",
      "source": {
        "title": "BeInCrypto",
        "region": "en",
        "domain": "beincrypto.com",
        "path": null
      },
      "title": "Police Seek Russian Crypto-Ponzi Founders as Investigation Continues",
      "published_at": "2021-08-14T14:30:00Z",
      "slug": "Police-Seek-Russian-Crypto-Ponzi-Founders-as-Investigation-Continues",
      "id": 12538045,
      "url": "https://cryptopanic.com/news/12538045/Police-Seek-Russian-Crypto-Ponzi-Founders-as-Investigation-Continues",
      "created_at": "2021-08-14T14:30:00Z",
      "votes": {
        "negative": 0,
        "positive": 0,
        "important": 0,
        "liked": 0,
        "disliked": 0,
        "lol": 0,
        "toxic": 0,
        "saved": 0,
        "comments": 0
      }
    },
    {
      "kind": "news",
      "domain": "zycrypto.com",
      "votes": {
        "negative": 0,
        "positive": 2,
        "important": 0,
        "liked": 1,
        "disliked": 0,
        "lol": 0,
        "toxic": 0,
        "saved": 0,
        "comments": 1
      },
      "source": {
        "title": "ZyCrypto",
        "region": "en",
        "domain": "zycrypto.com",
        "path": null
      },
      "title": "Tech Giant Intel Owns A Stake In Coinbase",
      "published_at": "2021-08-14T14:19:05Z",
      "slug": "Tech-Giant-Intel-Owns-A-Stake-In-Coinbase",
      "id": 12538016,
      "url": "https://cryptopanic.com/news/12538016/Tech-Giant-Intel-Owns-A-Stake-In-Coinbase",
      "created_at": "2021-08-14T14:19:05Z"
    },
    {
      "kind": "news",
      "domain": "u.today",
      "votes": {
        "negative": 0,
        "positive": 0,
        "important": 0,
        "liked": 3,
        "disliked": 0,
        "lol": 0,
        "toxic": 0,
        "saved": 0,
        "comments": 3
      },
      "source": {
        "title": "U.Today",
        "region": "en",
        "domain": "u.today",
        "path": null
      },
      "title": "Bitcoin (BTC) Price Analysis for August 14",
      "published_at": "2021-08-14T14:15:57Z",
      "slug": "Bitcoin-BTC-Price-Analysis-for-August-14",
      "currencies": [
        {
          "code": "BTC",
          "title": "Bitcoin",
          "slug": "bitcoin",
          "url": "https://cryptopanic.com/news/bitcoin/"
        }
      ],
      "id": 12538017,
      "url": "https://cryptopanic.com/news/12538017/Bitcoin-BTC-Price-Analysis-for-August-14",
      "created_at": "2021-08-14T14:15:57Z"
    },
    {
      "kind": "news",
      "domain": "cointelegraph.com",
      "votes": {
        "negative": 1,
        "positive": 0,
        "important": 0,
        "liked": 0,
        "disliked": 3,
        "lol": 2,
        "toxic": 0,
        "saved": 0,
        "comments": 13
      },
      "source": {
        "title": "CoinTelegraph",
        "region": "en",
        "domain": "cointelegraph.com",
        "path": null
      },
      "title": "How will blockchain and crypto improve the lives of LGBTQ+ people? Experts answer",
      "published_at": "2021-08-14T14:15:00Z",
      "slug": "How-will-blockchain-and-crypto-improve-the-lives-of-LGBTQ-people-Experts-answer",
      "id": 12538007,
      "url": "https://cryptopanic.com/news/12538007/How-will-blockchain-and-crypto-improve-the-lives-of-LGBTQ-people-Experts-answer",
      "created_at": "2021-08-14T14:15:00Z"
    },
    {
      "kind": "media",
      "domain": "youtube.com",
      "votes": {
        "negative": 0,
        "positive": 0,
        "important": 0,
        "liked": 2,
        "disliked": 1,
        "lol": 0,
        "toxic": 0,
        "saved": 0,
        "comments": 0
      },
      "source": {
        "title": "Crypto Tips",
        "region": "en",
        "domain": "youtube.com",
        "path": null
      },
      "title": "Ep. 41: Purely Holding Staking Coins like MATIC is a HUGE Mistake",
      "published_at": "2021-08-14T14:00:07Z",
      "slug": "Ep-41-Purely-Holding-Staking-Coins-like-MATIC-is-a-HUGE-Mistake",
      "currencies": [
        {
          "code": "MATIC",
          "title": "Polygon",
          "slug": "matic-network",
          "url": "https://cryptopanic.com/news/matic-network/"
        }
      ],
      "id": 12538008,
      "url": "https://cryptopanic.com/news/12538008/Ep-41-Purely-Holding-Staking-Coins-like-MATIC-is-a-HUGE-Mistake",
      "created_at": "2021-08-14T14:00:07Z"
    },
    {
      "kind": "news",
      "domain": "cryptopotato.com",
      "votes": {
        "negative": 0,
        "positive": 5,
        "important": 1,
        "liked": 3,
        "disliked": 0,
        "lol": 1,
        "toxic": 0,
        "saved": 1,
        "comments": 5
      },
      "source": {
        "title": "Feed - Cryptopotato.Com",
        "region": "en",
        "domain": "cryptopotato.com",
        "path": null
      },
      "title": "Nearly 30% of Canadians Are Cryptocurrency Investors: Survey",
      "published_at": "2021-08-14T13:57:44Z",
      "slug": "Nearly-30-of-Canadians-Are-Cryptocurrency-Investors-Survey",
      "currencies": [
        {
          "code": "BTC",
          "title": "Bitcoin",
          "slug": "bitcoin",
          "url": "https://cryptopanic.com/news/bitcoin/"
        },
        {
          "code": "ETH",
          "title": "Ethereum",
          "slug": "ethereum",
          "url": "https://cryptopanic.com/news/ethereum/"
        }
      ],
      "id": 12537966,
      "url": "https://cryptopanic.com/news/12537966/Nearly-30-of-Canadians-Are-Cryptocurrency-Investors-Survey",
      "created_at": "2021-08-14T13:57:44Z"
    },
    {
      "kind": "media",
      "domain": "youtube.com",
      "source": {
        "title": "Cryptocurrency Market",
        "region": "en",
        "domain": "youtube.com",
        "path": null
      },
      "title": "Life Changing Finance #81 - Are You Being The Best Trader & Investor You Can Possibly Be? - Tai Zen",
      "published_at": "2021-08-14T13:56:41Z",
      "slug": "Life-Changing-Finance-81-Are-You-Being-The-Best-Trader-Investor-You-Can-Possibly-Be-Tai-Zen",
      "id": 12537964,
      "url": "https://cryptopanic.com/news/12537964/Life-Changing-Finance-81-Are-You-Being-The-Best-Trader-Investor-You-Can-Possibly-Be-Tai-Zen",
      "created_at": "2021-08-14T13:56:41Z",
      "votes": {
        "negative": 0,
        "positive": 0,
        "important": 0,
        "liked": 0,
        "disliked": 0,
        "lol": 0,
        "toxic": 0,
        "saved": 0,
        "comments": 0
      }
    },
    {
      "kind": "news",
      "domain": "dailyhodl.com",
      "source": {
        "title": "The Daily Hodl",
        "region": "en",
        "domain": "dailyhodl.com",
        "path": null
      },
      "title": "Michaël van de Poppe Analyzes Four Altcoins, Predicts Possible Scenarios for Bitcoin and Ethereum",
      "published_at": "2021-08-14T13:55:20Z",
      "slug": "Michael-van-de-Poppe-Analyzes-Four-Altcoins-Predicts-Possible-Scenarios-for-Bitcoin-and-Ethereum",
      "currencies": [
        {
          "code": "BTC",
          "title": "Bitcoin",
          "slug": "bitcoin",
          "url": "https://cryptopanic.com/news/bitcoin/"
        },
        {
          "code": "ETH",
          "title": "Ethereum",
          "slug": "ethereum",
          "url": "https://cryptopanic.com/news/ethereum/"
        },
        {
          "code": "LUNA",
          "title": "Terra",
          "slug": "luna-terra",
          "url": "https://cryptopanic.com/news/luna-terra/"
        },
        {
          "code": "LUNA",
          "title": "Terra",
          "slug": "terra-luna",
          "url": "https://cryptopanic.com/news/terra-luna/"
        }
      ],
      "id": 12538015,
      "url": "https://cryptopanic.com/news/12538015/Michael-van-de-Poppe-Analyzes-Four-Altcoins-Predicts-Possible-Scenarios-for-Bitcoin-and-Ethereum",
      "created_at": "2021-08-14T13:55:20Z",
      "votes": {
        "negative": 0,
        "positive": 0,
        "important": 0,
        "liked": 0,
        "disliked": 0,
        "lol": 0,
        "toxic": 0,
        "saved": 0,
        "comments": 0
      }
    },
    {
      "kind": "news",
      "domain": "cointelegraph.com",
      "votes": {
        "negative": 0,
        "positive": 0,
        "important": 0,
        "liked": 0,
        "disliked": 0,
        "lol": 0,
        "toxic": 0,
        "saved": 0,
        "comments": 3
      },
      "source": {
        "title": "CoinTelegraph",
        "region": "en",
        "domain": "cointelegraph.com",
        "path": null
      },
      "title": "XRP chart triggers sell-off warning after price explodes by 54% in one week",
      "published_at": "2021-08-14T13:45:18Z",
      "slug": "XRP-chart-triggers-sell-off-warning-after-price-explodes-by-54-in-one-week",
      "currencies": [
        {
          "code": "XRP",
          "title": "XRP",
          "slug": "ripple",
          "url": "https://cryptopanic.com/news/ripple/"
        }
      ],
      "id": 12537940,
      "url": "https://cryptopanic.com/news/12537940/XRP-chart-triggers-sell-off-warning-after-price-explodes-by-54-in-one-week",
      "created_at": "2021-08-14T13:45:18Z"
    }
  ]
}